64387
18534
0
0
0
0
64387
18534
0
0
0
0
63993
18895
0
0
0
0
63993
18895
0
0
0
0
63586
19444
0
0
0
0
63586
19444
0
0
0
0
62985
19950
0
0
0
0
62985
19950
0
0
0
0
62214
20226
0
0
0
0
62214
20226
0
0
0
0
61554
20422
0
0
0
0
61554
20422
0
0
0
0
61132
20455
0
0
0
0
61132
20455
0
0
0
0
60693
20379
0
0
0
0
60693
20379
0
0
0
0
60045
20536
0
0
0
0
60045
20536
0
0
0
0
59146
20854
0
0
0
0
59146
20854
0
0
0
0
58252
21060
0
0
0
0
58252
21060
0
0
0
0
57798
21318
0
0
0
0
57798
21318
0
0
0
0
57733
21742
0
0
0
0
57733
21742
0
0
0
0
57571
22029
0
0
0
0
57571
22029
0
0
0
0
56964
22300
0
0
0
0
56964
22300
0
0
0
0
56103
22693
0
0
0
0
56103
22693
0
0
0
0
55501
22917
0
0
0
0
55501
22917
0
0
0
0
55390
22980
0
0
0
0
55390
22980
0
0
0
0
55563
23134
0
0
0
0
55563
23134
0
0
0
0
55692
23221
0
0
0
0
55692
23221
0
0
0
0
55771
22834
0
0
0
0
55771
22834
0
0
0
0
55897
22194
0
0
0
0
55897
21438
0
0
0
0
56200
21438
0
0
0
0
56941
20049
0
0
0
0
56941
20049
0
0
0
0
58150
17992
0
0
0
0
58150
17992
0
0
0
0
59656
15490
0
0
0
0
59656
15490
0
0
0
0
61251
12429
0
0
0
0
61251
12429
0
0
0
0
62646
9060
0
0
0
0
62646
9060
0
0
0
0
63610
6136
0
0
0
0
63610
6136
0
0
0
0
64288
3988
0
0
0
0
64288
3988
0
0
0
0
64794
2502
0
0
0
0
64794
2502
0
0
0
0
65103
1494
0
0
0
0
65103
1494
0
0
0
0
65233
826
0
0
0
0
65233
826
0
0
0
0
65278
405
0
0
0
0
65278
405
0
0
0
0
65286
147
0
0
0
0
65286
147
0
0
0
0
65278
65514
0
0
0
0
65278
65514
0
0
0
0
65196
19281
0
0
0
0
65196
19281
0
0
0
0
64245
20344
0
0
0
0
64245
20344
0
0
0
0
63471
21106
0
0
0
0
63471
21106
0
0
0
0
62733
21259
0
0
0
0
62733
21259
0
0
0
0
62010
21190
0
0
0
0
62010
21190
0
0
0
0
61579
20974
0
0
0
0
61579
20974
0
0
0
0
61434
20431
0
0
0
0
61434
20431
0
0
0
0
61258
20238
0
0
0
0
61258
20238
0
0
0
0
60885
20865
0
0
0
0
60885
20865
0
0
0
0
60442
21876
0
0
0
0
60442
21876
0
0
0
0
60066
22851
0
0
0
0
60066
22851
0
0
0
0
59548
23623
0
0
0
0
59548
23623
0
0
0
0
58896
23979
0
0
0
0
58896
23979
0
0
0
0
58239
23668
0
0
0
0
58239
23668
0
0
0
0
57417
23152
0
0
0
0
57417
23152
0
0
0
0
56370
23127
0
0
0
0
56370
23127
0
0
0
0
55480
23359
0
0
0
0
55480
23359
0
0
0
0
55084
23140
0
0
0
0
55084
23140
0
0
0
0
54951
22590
0
0
0
0
54951
22590
0
0
0
0
54696
22269
0
0
0
0
54696
22269
0
0
0
0
54450
22101
0
0
0
0
54450
22101
0
0
0
0
54423
21853
0
0
0
0
54556
21628
0
0
0
0
54556
21628
0
0
0
0
54900
21271
0
0
0
0
54900
21271
0
0
0
0
55302
20874
0
0
0
0
55302
20874
0
0
0
0
55474
20758
0
0
0
0
55474
20758
0
0
0
0
55380
20964
0
0
0
0
55380
20964
0
0
0
0
55288
21022
0
0
0
0
55288
21022
0
0
0
0
55279
20772
0
0
0
0
55279
20772
0
0
0
0
55228
20584
0
0
0
0
55228
20584
0
0
0
0
55224
20586
0
0
0
0
55224
20586
0
0
0
0
55414
20650
0
0
0
0
55414
20650
0
0
0
0
55609
20863
0
0
0
0
55609
20863
0
0
0
0
55624
21186
0
0
0
0
55624
21186
0
0
0
0
55843
21213
0
0
0
0
55843
21213
0
0
0
0
56481
20790
0
0
0
0
56481
20790
0
0
0
0
57195
20238
0
0
0
0
57195
20238
0
0
0
0
57879
19848
0
0
0
0
57879
19848
0
0
0
0
58854
19465
0
0
0
0
58854
19465
0
0
0
0
60354
18522
0
0
0
0
60354
18522
0
0
0
0
62163
16485
0
0
0
0
62163
16485
0
0
0
0
63774
13273
0
0
0
0
63774
13273
0
0
0
0
64845
9591
0
0
0
0
64845
9591
0
0
0
0
65460
6381
0
0
0
0
65460
6381
0
0
0
0
228
4066
0
0
0
0
285
2497
0
0
0
0
285
2497
0
0
0
0
181
1462
0
0
0
0
181
1462
0
0
0
0
52
810
0
0
0
0
52
810
0
0
0
0
65494
403
0
0
0
0
65494
403
0
0
0
0
65427
145
0
0
0
0
65427
145
0
0
0
0
60915
18315
0
0
0
0
60915
18315
0
0
0
0
60574
18889
0
0
0
0
60574
18889
0
0
0
0
60286
18864
0
0
0
0
60286
18864
0
0
0
0
59751
18882
0
0
0
0
59751
18882
0
0
0
0
59268
19216
0
0
0
0
59268
19216
0
0
0
0
59142
19614
0
0
0
0
59142
19614
0
0
0
0
58960
19978
0
0
0
0
58960
19978
0
0
0
0
58446
20412
0
0
0
0
58446
20412
0
0
0
0
58015
20746
0
0
0
0
58015
20746
0
0
0
0
57754
20812
0
0
0
0
57754
20812
0
0
0
0
57517
20892
0
0
0
0
57517
20892
0
0
0
0
57466
21144
0
0
0
0
57466
21144
0
0
0
0
57435
21459
0
0
0
0
57435
21459
0
0
0
0
57033
21711
0
0
0
0
57033
21711
0
0
0
0
56595
21718
0
0
0
0
56595
21718
0
0
0
0
56541
21646
0
0
0
0
56541
21646
0
0
0
0
56680
21354
0
0
0
0
65251
65137
0
0
0
0
65251
65137
0
0
0
0
